Name,Email,phone,Comment,Date
"Augustine Ochigbo Emmanuel",austinblizz@gmail.com,7064623170,Aususususus,2018-08-04
Name,Email,phone,Comment,Date
"Austin Emma",austinblizz@gmail.com,1234,,2018-08-10
Name,Email,phone,Comment,Date
"Austin Emma",austinblizz@gmail.com,1234,,2018-08-10
Name,Email,phone,Comment,Date
"Austin Emma",aaa@hshd.com,8075964774,gjhjvjhg,2018-08-11
Name,Email,phone,Comment,Date
"Austin Emma",austinblizz@gmail.com,8075964774,,2018-08-24
Name,Email,phone,Comment,Date
"Austin Em",austinblizz@gmail.com,8075964774,,2018-08-24
